{
  "iisSettings": {
    "windowsAuthentication": false,
    "anonymousAuthentication": true,
    "iisExpress": {
      "applicationUrl": "http://localhost:51731",
      "sslPort": 44324
    }
  },
  "$schema": "http://json.schemastore.org/launchsettings.json",
  "profiles": {
    "IIS Express": {
      "commandName": "IISExpress",
      "launchBrowser": true,
      "launchUrl": "Pokemon",
      "environmentVariables": {
        "MongoClient": "mongodb://localhost:27018",
        "MongoDatabase": "Pokedex",
        "Mongocollection": "PokemonCollection",
        "ASPNETCORE_ENVIRONMENT": "Development"
      }
    },
    "Pokedex.Api": {
      "commandName": "Project",
      "launchBrowser": true,
      "launchUrl": "Pokemon",
      "environmentVariables": {
        "MongoClient": "mongodb://localhost:27018",
        "MongoDatabase": "Pokedex",
        "Mongocollection": "PokemonCollection",
        "ASPNETCORE_ENVIRONMENT": "Development"
      },
      "applicationUrl": "https://localhost:5001;http://localhost:5000"
    },
    "Docker": {
      "commandName": "Docker",
      "launchBrowser": true,
      "launchUrl": "{Scheme}://{ServiceHost}:{ServicePort}/Pokemon",
      "publishAllPorts": true,
      "useSSL": true
    }
  }
}